…
predprey <- mskeyrun::simSurveyDietcomp %>%
  filter(prey %in% unique(Name)) %>%
  select(Name, agecl, year, prey, value) %>%
  group_by(Name, prey) %>%
  summarise(avgpreyprop = mean(value)) %>%
  unite('Pred-Prey', Name:prey, sep = "-")
```

    ## `summarise()` has grouped output by 'Name'. You can override using the `.groups` argument.

``` r
predprey %>% arrange(desc(avgpreyprop))
```

    ## # A tibble: 34 x 2
    ##    `Pred-Prey`                  avgpreyprop
    ##    <chr>                              <dbl>
    ##  1 Redfish-Blue_whiting              0.468 
    ##  2 North_atl_cod-Capelin             0.133 
    ##  3 North_atl_cod-Haddock             0.0921
    ##  4 Redfish-Haddock                   0.0824
    ##  5 Blue_whiting-Redfish              0.0414
    ##  6 North_atl_cod-Long_rough_dab      0.0332
    ##  7 Haddock-Long_rough_dab            0.0243
    ##  8 Green_halibut-Redfish             0.0210
    ##  9 Haddock-Norwegian_ssh             0.0193
    ## 10 Haddock-North_atl_cod             0.0168
    ## # … with 24 more rows
…
